keshe-ex1/ex1/simulation/qsim/ex1.msim.vcd
$comment
	File created using the following command:
		vcd file ex1.msim.vcd -direction
$end
$date
	Tue Oct 08 14:26:03 2024
$end
$version
	ModelSim Version 10.1d
$end
$timescale
	1ps
$end
$scope module ex1_vlg_vec_tst $end
$var reg 1 ! CLK $end
$var reg 1 " CLR $end
$var wire 1 # D0 $end
$var wire 1 $ D1 $end
$var wire 1 % D2 $end
$var wire 1 & D3 $end
$var wire 1 ' D4 $end
$var wire 1 ( D5 $end
$var wire 1 ) D6 $end
$var wire 1 * D7 $end
$var wire 1 + sampler $end
$scope module i1 $end
$var wire 1 , gnd $end
$var wire 1 - vcc $end
$var wire 1 . unknown $end
$var tri1 1 / devclrn $end
$var tri1 1 0 devpor $end
$var tri1 1 1 devoe $end
$var wire 1 2 inst6|inst3|19~q $end
$var wire 1 3 inst6|inst2|18~q $end
$var wire 1 4 inst6|inst|44~0_combout $end
$var wire 1 5 inst6|inst2|12~q $end
$var wire 1 6 inst6|inst1|77~2_combout $end
$var wire 1 7 inst4|inst|sub|110~0_combout $end
$var wire 1 8 inst10~combout $end
$var wire 1 9 inst9~combout $end
$var wire 1 : inst10~clkctrl_outclk $end
$var wire 1 ; inst9~clkctrl_outclk $end
$var wire 1 < inst6|inst2|12~feeder_combout $end
$var wire 1 = D0~output_o $end
$var wire 1 > D1~output_o $end
$var wire 1 ? D2~output_o $end
$var wire 1 @ D3~output_o $end
$var wire 1 A D4~output_o $end
$var wire 1 B D5~output_o $end
$var wire 1 C D6~output_o $end
$var wire 1 D D7~output_o $end
$var wire 1 E CLK~input_o $end
$var wire 1 F inst4|inst1|sub|9~0_combout $end
$var wire 1 G CLR~input_o $end
$var wire 1 H CLR~inputclkctrl_outclk $end
$var wire 1 I inst4|inst1|sub|9~q $end
$var wire 1 J inst4|inst1|sub|87~0_combout $end
$var wire 1 K inst4|inst1|sub|87~q $end
$var wire 1 L inst4|inst1|sub|99~0_combout $end
$var wire 1 M inst4|inst1|sub|99~q $end
$var wire 1 N inst4|inst1|sub|110~0_combout $end
$var wire 1 O inst4|inst1|sub|110~q $end
$var wire 1 P inst4|inst|sub|89~0_combout $end
$var wire 1 Q inst4|inst|sub|9~0_combout $end
$var wire 1 R inst4|inst|sub|9~q $end
$var wire 1 S inst4|inst|sub|87~0_combout $end
$var wire 1 T inst4|inst|sub|87~q $end
$var wire 1 U inst4|inst|sub|99~0_combout $end
$var wire 1 V inst4|inst|sub|99~q $end
$var wire 1 W inst4|inst|sub|110~1_combout $end
$var wire 1 X inst4|inst|sub|110~q $end
$var wire 1 Y inst8~combout $end
$var wire 1 Z inst8~clkctrl_outclk $end
$var wire 1 [ CLK~inputclkctrl_outclk $end
$var wire 1 \ inst6|inst2|19~q $end
$var wire 1 ] inst6|inst|46~0_combout $end
$var wire 1 ^ inst6|inst|80~0_combout $end
$var wire 1 _ inst6|inst4|19~q $end
$var wire 1 ` inst6|inst3|18~q $end
$var wire 1 a inst6|inst|47~0_combout $end
$var wire 1 b inst6|inst|43~0_combout $end
$var wire 1 c inst6|inst|79~0_combout $end
$var wire 1 d inst6|inst|81~combout $end
$var wire 1 e inst6|inst4|18~q $end
$var wire 1 f inst6|inst|75~0_combout $end
$var wire 1 g inst6|inst|75~1_combout $end
$var wire 1 h inst6|inst3|17~q $end
$var wire 1 i inst6|inst2|17~q $end
$var wire 1 j inst6|inst|45~0_combout $end
$var wire 1 k inst6|inst|82~combout $end
$var wire 1 l inst6|inst4|17~q $end
$var wire 1 m inst6|inst|48~0_combout $end
$var wire 1 n inst6|inst|74~0_combout $end
$var wire 1 o inst6|inst3|16~q $end
$var wire 1 p inst6|inst2|16~q $end
$var wire 1 q inst6|inst|51~0_combout $end
$var wire 1 r inst6|inst|77~combout $end
$var wire 1 s inst6|inst4|16~q $end
$var wire 1 t inst6|inst2|15~q $end
$var wire 1 u inst6|inst1|46~0_combout $end
$var wire 1 v inst6|inst3|15~q $end
$var wire 1 w inst6|inst1|43~0_combout $end
$var wire 1 x inst6|inst1|80~combout $end
$var wire 1 y inst6|inst4|15~q $end
$var wire 1 z inst6|inst3|14~q $end
$var wire 1 { inst6|inst2|14~q $end
$var wire 1 | inst6|inst1|47~0_combout $end
$var wire 1 } inst6|inst1|44~0_combout $end
$var wire 1 ~ inst6|inst|52~0_combout $end
$var wire 1 !! inst6|inst|78~0_combout $end
$var wire 1 "! inst6|inst|78~1_combout $end
$var wire 1 #! inst6|inst1|79~combout $end
$var wire 1 $! inst6|inst1|81~combout $end
$var wire 1 %! inst6|inst4|14~q $end
$var wire 1 &! inst6|inst1|75~0_combout $end
$var wire 1 '! inst6|inst1|75~1_combout $end
$var wire 1 (! inst6|inst3|13~feeder_combout $end
$var wire 1 )! inst6|inst3|13~q $end
$var wire 1 *! inst6|inst1|45~0_combout $end
$var wire 1 +! inst6|inst2|13~q $end
$var wire 1 ,! inst6|inst1|48~0_combout $end
$var wire 1 -! inst6|inst1|82~combout $end
$var wire 1 .! inst6|inst4|13~q $end
$var wire 1 /! inst6|inst3|12~q $end
$var wire 1 0! inst6|inst1|77~1_combout $end
$var wire 1 1! inst6|inst1|77~0_combout $end
$var wire 1 2! inst6|inst1|77~3_combout $end
$var wire 1 3! inst6|inst4|12~q $end
$var wire 1 4! inst2|altsyncram_component|auto_generated|q_a [23] $end
$var wire 1 5! inst2|altsyncram_component|auto_generated|q_a [22] $end
$var wire 1 6! inst2|altsyncram_component|auto_generated|q_a [21] $end
$var wire 1 7! inst2|altsyncram_component|auto_generated|q_a [20] $end
$var wire 1 8! inst2|altsyncram_component|auto_generated|q_a [19] $end
$var wire 1 9! inst2|altsyncram_component|auto_generated|q_a [18] $end
$var wire 1 :! inst2|altsyncram_component|auto_generated|q_a [17] $end
$var wire 1 ;! inst2|altsyncram_component|auto_generated|q_a [16] $end
$var wire 1 <! inst2|altsyncram_component|auto_generated|q_a [15] $end
$var wire 1 =! inst2|altsyncram_component|auto_generated|q_a [14] $end
$var wire 1 >! inst2|altsyncram_component|auto_generated|q_a [13] $end
$var wire 1 ?! inst2|altsyncram_component|auto_generated|q_a [12] $end
$var wire 1 @! inst2|altsyncram_component|auto_generated|q_a [11] $end
$var wire 1 A! inst2|altsyncram_component|auto_generated|q_a [10] $end
$var wire 1 B! inst2|altsyncram_component|auto_generated|q_a [9] $end
$var wire 1 C! inst2|altsyncram_component|auto_generated|q_a [8] $end
$var wire 1 D! inst2|altsyncram_component|auto_generated|q_a [7] $end
$var wire 1 E! inst2|altsyncram_component|auto_generated|q_a [6] $end
$var wire 1 F! inst2|altsyncram_component|auto_generated|q_a [5] $end
$var wire 1 G! inst2|altsyncram_component|auto_generated|q_a [4] $end
$var wire 1 H! inst2|altsyncram_component|auto_generated|q_a [3] $end
$var wire 1 I! inst2|altsyncram_component|auto_generated|q_a [2] $end
$var wire 1 J! inst2|altsyncram_component|auto_generated|q_a [1] $end
$var wire 1 K! inst2|altsyncram_component|auto_generated|q_a [0] $end
$var wire 1 L! inst2|altsyncram_component|auto_generated|ram_block1a0_PORTADATAOUT_bus [17] $end
$var wire 1 M! inst2|altsyncram_component|auto_generated|ram_block1a0_PORTADATAOUT_bus [16] $end
$var wire 1 N! inst2|altsyncram_component|auto_generated|ram_block1a0_PORTADATAOUT_bus [15] $end
$var wire 1 O! inst2|altsyncram_component|auto_generated|ram_block1a0_PORTADATAOUT_bus [14] $end
$var wire 1 P! inst2|altsyncram_component|auto_generated|ram_block1a0_PORTADATAOUT_bus [13] $end
$var wire 1 Q! inst2|altsyncram_component|auto_generated|ram_block1a0_PORTADATAOUT_bus [12] $end
$var wire 1 R! inst2|altsyncram_component|auto_generated|ram_block1a0_PORTADATAOUT_bus [11] $end
$var wire 1 S! inst2|altsyncram_component|auto_generated|ram_block1a0_PORTADATAOUT_bus [10] $end
$var wire 1 T! inst2|altsyncram_component|auto_generated|ram_block1a0_PORTADATAOUT_bus [9] $end
$var wire 1 U! inst2|altsyncram_component|auto_generated|ram_block1a0_PORTADATAOUT_bus [8] $end
$var wire 1 V! inst2|altsyncram_component|auto_generated|ram_block1a0_PORTADATAOUT_bus [7] $end
$var wire 1 W! inst2|altsyncram_component|auto_generated|ram_block1a0_PORTADATAOUT_bus [6] $end
$var wire 1 X! inst2|altsyncram_component|auto_generated|ram_block1a0_PORTADATAOUT_bus [5] $end
$var wire 1 Y! inst2|altsyncram_component|auto_generated|ram_block1a0_PORTADATAOUT_bus [4] $end
$var wire 1 Z! inst2|altsyncram_component|auto_generated|ram_block1a0_PORTADATAOUT_bus [3] $end
$var wire 1 [! inst2|altsyncram_component|auto_generated|ram_block1a0_PORTADATAOUT_bus [2] $end
$var wire 1 \! inst2|altsyncram_component|auto_generated|ram_block1a0_PORTADATAOUT_bus [1] $end
$var wire 1 ]! inst2|altsyncram_component|auto_generated|ram_block1a0_PORTADATAOUT_bus [0] $end
$var wire 1 ^! inst2|altsyncram_component|auto_generated|ram_block1a5_PORTADATAOUT_bus [17] $end
$var wire 1 _! inst2|altsyncram_component|auto_generated|ram_block1a5_PORTADATAOUT_bus [16] $end
$var wire 1 `! inst2|altsyncram_component|auto_generated|ram_block1a5_PORTADATAOUT_bus [15] $end
$var wire 1 a! inst2|altsyncram_component|auto_generated|ram_block1a5_PORTADATAOUT_bus [14] $end
$var wire 1 b! inst2|altsyncram_component|auto_generated|ram_block1a5_PORTADATAOUT_bus [13] $end
$var wire 1 c! inst2|altsyncram_component|auto_generated|ram_block1a5_PORTADATAOUT_bus [12] $end
$var wire 1 d! inst2|altsyncram_component|auto_generated|ram_block1a5_PORTADATAOUT_bus [11] $end
$var wire 1 e! inst2|altsyncram_component|auto_generated|ram_block1a5_PORTADATAOUT_bus [10] $end
$var wire 1 f! inst2|altsyncram_component|auto_generated|ram_block1a5_PORTADATAOUT_bus [9] $end
$var wire 1 g! inst2|altsyncram_component|auto_generated|ram_block1a5_PORTADATAOUT_bus [8] $end
$var wire 1 h! inst2|altsyncram_component|auto_generated|ram_block1a5_PORTADATAOUT_bus [7] $end
$var wire 1 i! inst2|altsyncram_component|auto_generated|ram_block1a5_PORTADATAOUT_bus [6] $end
$var wire 1 j! inst2|altsyncram_component|auto_generated|ram_block1a5_PORTADATAOUT_bus [5] $end
$var wire 1 k! inst2|altsyncram_component|auto_generated|ram_block1a5_PORTADATAOUT_bus [4] $end
$var wire 1 l! inst2|altsyncram_component|auto_generated|ram_block1a5_PORTADATAOUT_bus [3] $end
$var wire 1 m! inst2|altsyncram_component|auto_generated|ram_block1a5_PORTADATAOUT_bus [2] $end
$var wire 1 n! inst2|altsyncram_component|auto_generated|ram_block1a5_PORTADATAOUT_bus [1] $end
$var wire 1 o! inst2|altsyncram_component|auto_generated|ram_block1a5_PORTADATAOUT_bus [0] $end
$upscope $end
$upscope $end
$enddefinitions $end
#0
$dumpvars
0!
1"
0#
0$
0%
0&
0'
0(
0)
0*
x+
0,
1-
x.
1/
10
11
02
03
04
05
06
17
08
09
0:
0;
0<
0=
0>
0?
0@
0A
0B
0C
0D
0E
1F
1G
1H
0I
0J
0K
0L
0M
0N
0O
0P
0Q
0R
0S
0T
0U
0V
0W
0X
0Y
0Z
0[
0\
0]
1^
0_
0`
0a
0b
1c
0d
0e
1f
1g
0h
0i
0j
0k
0l
0m
1n
0o
0p
0q
0r
0s
0t
0u
0v
0w
0x
0y
0z
0{
0|
0}
0~
0!!
1"!
1#!
0$!
0%!
1&!
1'!
0(!
0)!
0*!
0+!
0,!
0-!
0.!
0/!
00!
01!
02!
03!
0K!
0J!
0I!
0H!
0G!
0F!
0E!
0D!
0C!
zB!
zA!
z@!
z?!
z>!
z=!
z<!
0;!
0:!
09!
08!
07!
06!
05!
04!
0]!
0\!
0[!
0Z!
0Y!
0X!
0W!
0V!
0U!
0T!
0S!
0R!
0Q!
0P!
0O!
0N!
0M!
0L!
0o!
0n!
0m!
0l!
0k!
0j!
0i!
0h!
0g!
0f!
0e!
0d!
0c!
0b!
0a!
0`!
0_!
0^!
$end
#10000
1!
1E
1[
0+
1I
1J
0F
#10001
1m!
1W!
1U!
1S!
1Q!
1D!
1;!
19!
17!
15!
1(!
#20000
0!
0E
0[
1+
18
1:
1+!
1t
1i
1\
1*!
1w
1j
1b
1-!
1x
1k
0f
0c
0^
1d
#30000
1!
1E
1[
0+
08
0:
1K
0I
1F
#30001
1n!
0m!
0W!
1V!
0U!
1T!
0S!
1R!
0Q!
1P!
1E!
0D!
0;!
1:!
09!
18!
07!
16!
05!
14!
0(!
1<
#40000
0!
0E
0[
1+
19
1;
1/!
1z
1o
1`
#50000
1!
1E
1[
0+
09
0;
1I
1L
0J
0F
#50001
1o!
0n!
1]!
1Z!
1X!
0V!
0T!
0R!
0P!
1F!
0E!
1K!
1H!
1C!
0:!
08!
06!
04!
10!
1}
1q
14
1f
1c
1^
0<
12!
1$!
1r
#60000
0!
0E
0[
1+
1Y
1Z
13!
1.!
1%!
1y
1s
1l
1e
1_
1D
1C
1B
1A
1@
1?
1>
1=
1*
1)
1(
1'
1&
1%
1$
1#
#70000
1!
1E
1[
0+
0Y
0Z
1M
0K
0I
1F
#70001
0]!
1\!
1[!
0Z!
0X!
0K!
1J!
1I!
0H!
0C!
00!
0}
0q
04
1,!
1u
1m
1]
0f
0c
0^
02!
0$!
0r
1!!
11!
0-!
0&!
0#!
0x
0n
0k
1^
12!
1$!
1r
#80000
0!
0E
0[
1+
1Y
1Z
0.!
0y
0l
0C
0A
0?
0)
0'
0%
#90000
1!
1E
1[
0+
0Y
0Z
1I
1J
0F
#90001
0\!
0[!
0J!
0I!
0,!
0u
0m
0]
01!
1-!
1&!
1#!
1x
0!!
1n
1k
0^
02!
0$!
0r
#100000
0!
0E
0[
1+
1Y
1Z
03!
1.!
0%!
1y
0s
1l
0_
0D
1C
0B
1A
0@
1?
0=
0*
1)
0(
1'
0&
1%
0#
#110000
1!
1E
1[
0+
0Y
0Z
1K
0I
1F
#110001
1]!
1\!
1[!
1Z!
1X!
1K!
1J!
1I!
1H!
1C!
10!
1}
1q
14
1,!
1u
1m
1]
1f
1c
1^
12!
1$!
1r
1!!
11!
0-!
0&!
0#!
0x
0n
0k
0f
0c
0^
0"!
02!
0'!
0$!
0r
0g
0d
1x
1-!
1k
#120000
0!
0E
0[
1+
1Y
1Z
0e
0>
0$
#130000
1!
1E
1[
0+
0Y
0Z
1I
1N
0L
0J
0F
#130001
0\!
0[!
0X!
0J!
0I!
0C!
0,!
0u
0m
0]
1^
0-!
0x
0k
0^
#140000
0!
0E
0[
1+
1Y
1Z
0.!
0y
0l
0C
0A
0?
0)
0'
0%
#150000
1!
1E
1[
0+
0Y
0Z
1O
0M
0K
0I
1F
#150001
1\!
1Y!
1J!
1G!
#160000
0!
0E
0[
1+
1Y
1Z
#170000
1!
1E
1[
0+
0Y
0Z
1I
1J
0F
#170001
0]!
1[!
1X!
0K!
1I!
1C!
00!
0}
0q
04
1,!
1u
1m
1]
1f
12!
1$!
1"!
1r
1g
1d
1-!
1x
1k
0f
1^
#180000
0!
0E
0[
1+
1Y
1Z
13!
1.!
1%!
1y
1s
1l
1e
1_
1D
1C
1B
1A
1@
1?
1>
1=
1*
1)
1(
1'
1&
1%
1$
1#
#190000
1!
1E
1[
0+
0Y
0Z
1K
0I
1F
#190001
0Z!
0X!
0H!
0C!
#200000
0!
0E
0[
1+
1Y
1Z
#210000
1!
1E
1[
0+
0Y
0Z
1I
1L
0J
0F
#210001
1]!
1Z!
1K!
1H!
10!
1}
1q
14
02!
0$!
0"!
0r
0g
0d
#220000
0!
0E
0[
1+
1Y
1Z
03!
0%!
0s
0e
0D
0B
0@
0>
0*
0(
0&
0$
#230000
1!
1E
1[
0+
0Y
0Z
1M
0K
0I
1F
#230001
0]!
0[!
0K!
0I!
00!
0}
0q
04
0,!
0u
0m
0]
12!
1$!
1"!
1r
0!!
1g
1d
0-!
0x
0k
0^
1&!
#240000
0!
0E
0[
1+
1Y
1Z
13!
0.!
1%!
0y
1s
0l
1e
0_
1D
0C
1B
0A
1@
0?
1>
0=
1*
0)
1(
0'
1&
0%
1$
0#
#250000
1!
1E
1[
0+
0Y
0Z
1I
1J
0F
#250001
0\!
0Z!
0J!
0H!
#260000
0!
0E
0[
1+
1Y
1Z
#270000
1!
1E
1[
0+
0Y
0Z
1K
0I
1F
#270001
1]!
1[!
1K!
1I!
10!
1}
1q
14
1,!
1u
1m
1]
02!
0$!
0r
1!!
0g
0d
1-!
0&!
1x
1k
1^
0"!
#280000
0!
0E
0[
1+
1Y
1Z
03!
1.!
0%!
1y
0s
1l
0e
1_
0D
1C
0B
1A
0@
1?
0>
1=
0*
1)
0(
1'
0&
1%
0$
1#
#290000
1!
1E
1[
0+
0Y
0Z
1I
1P
0N
0L
0J
0F
1Q
#290001
0o!
0]!
0[!
0Y!
0F!
0K!
0I!
0G!
00!
0}
0q
04
0,!
0u
0m
0]
12!
1'!
1$!
1"!
1r
0!!
1g
1d
0-!
0x
0k
0^
01!
1-!
1&!
1#!
1x
1n
1k
02!
0$!
0r
#300000
0!
0E
0[
1+
#310000
1!
1E
1[
0+
1R
0O
0M
0K
0I
1S
0Q
0P
1F
0S
1Q
#320000
0!
0E
0[
1+
#330000
1!
1E
1[
0+
1I
1J
0F
#340000
0!
0E
0[
1+
#350000
1!
1E
1[
0+
1K
0I
1F
#360000
0!
0E
0[
1+
#370000
1!
1E
1[
0+
1I
1L
0J
0F
#380000
0"
0!
0G
0E
0H
0[
1+
0R
0K
0I
0Q
0L
1F
#390000
1!
1E
1[
0+
#390001
1m!
1W!
1U!
1S!
1Q!
1D!
1;!
19!
17!
15!
1(!
#400000
1"
0!
1G
0E
1H
0[
1+
18
1:
#410000
1!
1E
1[
0+
08
0:
1I
1J
0F
#420000
0!
0E
0[
1+
18
1:
#430000
1!
1E
1[
0+
08
0:
1K
0I
1F
#430001
1n!
0m!
0W!
1V!
0U!
1T!
0S!
1R!
0Q!
1P!
1E!
0D!
0;!
1:!
09!
18!
07!
16!
05!
14!
0(!
1<
#440000
0!
0E
0[
1+
19
1;
#450000
1!
1E
1[
0+
09
0;
1I
1L
0J
0F
#450001
1o!
0n!
1]!
1Z!
1X!
0V!
0T!
0R!
0P!
1F!
0E!
1K!
1H!
1C!
0:!
08!
06!
04!
10!
1}
1q
14
1f
1c
1^
0<
12!
1$!
1r
#460000
0!
0E
0[
1+
1Y
1Z
13!
1%!
1s
1e
1D
1B
1@
1>
1*
1(
1&
1$
#470000
1!
1E
1[
0+
0Y
0Z
1M
0K
0I
1F
#470001
0]!
1\!
1[!
0Z!
0X!
0K!
1J!
1I!
0H!
0C!
00!
0}
0q
04
1,!
1u
1m
1]
0f
0c
0^
02!
0$!
0r
1!!
11!
0-!
0&!
0#!
0x
0n
0k
1^
12!
1$!
1r
#480000
0!
0E
0[
1+
1Y
1Z
0.!
0y
0l
0C
0A
0?
0)
0'
0%
#490000
1!
1E
1[
0+
0Y
0Z
1I
1J
0F
#490001
0\!
0[!
0J!
0I!
0,!
0u
0m
0]
01!
1-!
1&!
1#!
1x
0!!
1n
1k
0^
02!
0$!
0r
#500000
0!
0E
0[
1+
1Y
1Z
03!
1.!
0%!
1y
0s
1l
0_
0D
1C
0B
1A
0@
1?
0=
0*
1)
0(
1'
0&
1%
0#
#510000
1!
1E
1[
0+
0Y
0Z
1K
0I
1F
#510001
1]!
1\!
1[!
1Z!
1X!
1K!
1J!
1I!
1H!
1C!
10!
1}
1q
14
1,!
1u
1m
1]
1f
1c
1^
12!
1$!
1r
1!!
11!
0-!
0&!
0#!
0x
0n
0k
0f
0c
0^
0"!
02!
0'!
0$!
0r
0g
0d
1x
1-!
1k
#520000
0!
0E
0[
1+
1Y
1Z
0e
0>
0$
#530000
1!
1E
1[
0+
0Y
0Z
1I
1N
0L
0J
0F
#530001
0\!
0[!
0X!
0J!
0I!
0C!
0,!
0u
0m
0]
1^
0-!
0x
0k
0^
#540000
0!
0E
0[
1+
1Y
1Z
0.!
0y
0l
0C
0A
0?
0)
0'
0%
#550000
1!
1E
1[
0+
0Y
0Z
1O
0M
0K
0I
1F
#550001
1\!
1Y!
1J!
1G!
#560000
0!
0E
0[
1+
1Y
1Z
#570000
1!
1E
1[
0+
0Y
0Z
1I
1J
0F
#570001
0]!
1[!
1X!
0K!
1I!
1C!
00!
0}
0q
04
1,!
1u
1m
1]
1f
12!
1$!
1"!
1r
1g
1d
1-!
1x
1k
0f
1^
#580000
0!
0E
0[
1+
1Y
1Z
13!
1.!
1%!
1y
1s
1l
1e
1_
1D
1C
1B
1A
1@
1?
1>
1=
1*
1)
1(
1'
1&
1%
1$
1#
#590000
1!
1E
1[
0+
0Y
0Z
1K
0I
1F
#590001
0Z!
0X!
0H!
0C!
#600000
0!
0E
0[
1+
1Y
1Z
#610000
1!
1E
1[
0+
0Y
0Z
1I
1L
0J
0F
#610001
1]!
1Z!
1K!
1H!
10!
1}
1q
14
02!
0$!
0"!
0r
0g
0d
#620000
0!
0E
0[
1+
1Y
1Z
03!
0%!
0s
0e
0D
0B
0@
0>
0*
0(
0&
0$
#630000
1!
1E
1[
0+
0Y
0Z
1M
0K
0I
1F
#630001
0]!
0[!
0K!
0I!
00!
0}
0q
04
0,!
0u
0m
0]
12!
1$!
1"!
1r
0!!
1g
1d
0-!
0x
0k
0^
1&!
#640000
0!
0E
0[
1+
1Y
1Z
13!
0.!
1%!
0y
1s
0l
1e
0_
1D
0C
1B
0A
1@
0?
1>
0=
1*
0)
1(
0'
1&
0%
1$
0#
#650000
1!
1E
1[
0+
0Y
0Z
1I
1J
0F
#650001
0\!
0Z!
0J!
0H!
#660000
0!
0E
0[
1+
1Y
1Z
#670000
1!
1E
1[
0+
0Y
0Z
1K
0I
1F
#670001
1]!
1[!
1K!
1I!
10!
1}
1q
14
1,!
1u
1m
1]
02!
0$!
0r
1!!
0g
0d
1-!
0&!
1x
1k
1^
0"!
#680000
0!
0E
0[
1+
1Y
1Z
03!
1.!
0%!
1y
0s
1l
0e
1_
0D
1C
0B
1A
0@
1?
0>
1=
0*
1)
0(
1'
0&
1%
0$
1#
#690000
1!
1E
1[
0+
0Y
0Z
1I
1P
0N
0L
0J
0F
1Q
#690001
0o!
0]!
0[!
0Y!
0F!
0K!
0I!
0G!
00!
0}
0q
04
0,!
0u
0m
0]
12!
1'!
1$!
1"!
1r
0!!
1g
1d
0-!
0x
0k
0^
01!
1-!
1&!
1#!
1x
1n
1k
02!
0$!
0r
#700000
0!
0E
0[
1+
#710000
1!
1E
1[
0+
1R
0O
0M
0K
0I
1S
0Q
0P
1F
0S
1Q
#720000
0!
0E
0[
1+
#730000
1!
1E
1[
0+
1I
1J
0F
#740000
0!
0E
0[
1+
#750000
1!
1E
1[
0+
1K
0I
1F
#760000
0!
0E
0[
1+
#770000
1!
1E
1[
0+
1I
1L
0J
0F
#780000
0!
0E
0[
1+
#790000
1!
1E
1[
0+
1M
0K
0I
1F
#800000
0!
0E
0[
1+
#810000
1!
1E
1[
0+
1I
1J
0F
#820000
0!
0E
0[
1+
#830000
1!
1E
1[
0+
1K
0I
1F
#840000
0!
0E
0[
1+
#850000
1!
1E
1[
0+
1I
1N
0L
0J
0F
#860000
0!
0E
0[
1+
#870000
1!
1E
1[
0+
1O
0M
0K
0I
1F
#880000
0!
0E
0[
1+
#890000
1!
1E
1[
0+
1I
1J
0F
#900000
0!
0E
0[
1+
#910000
1!
1E
1[
0+
1K
0I
1F
#920000
0!
0E
0[
1+
#930000
1!
1E
1[
0+
1I
1L
0J
0F
#940000
0!
0E
0[
1+
#950000
1!
1E
1[
0+
1M
0K
0I
1F
#960000
0!
0E
0[
1+
#970000
1!
1E
1[
0+
1I
1J
0F
#980000
0!
0E
0[
1+
#990000
1!
1E
1[
0+
1K
0I
1F
